1 1 1
1 999999 525
999999 999999 259
892648 25472 525
817872 397179 509
376000 695664 509
747517 980954 525
759620 461943 509
944854 763071 525
78591 866791 525
645436 372430 509
995754 149890 525
864995 753241 525
854102 210882 525
654148 699725 442
184120 869628 525
154327 616916 470
4860 913339 525
613645 395958 470
17463 907688 525
3661 637511 509
742894 519713 509
449331 665839 509
967006 462889 525
397448 920604 525
199658 77981 383
892365 766811 525
578076 95260 470
304306 777377 509
224769 517077 470
664412 341066 509
453509 826936 509
633641 477320 509
659068 577742 509
458331 65708 449
144321 101928 375
374335 92588 443
263070 598796 470
265188 687512 509
800134 629313 504
139222 311172 443
48089 597606 470
649630 791541 504
469573 175841 449
511036 767935 509
280683 560988 470
620718 963301 525
552832 580956 421
522387 355404 470
790275 421457 509
909718 951648 507
175100 70944 383
500292 19845 449
544137 743671 509
958475 287122 525
382754 975413 525
358953 839452 525
53690 955967 525
954398 242471 525
766333 215642 509
106521 530031 470
867086 39467 525
118823 18298 354
762401 59005 509
710477 357746 509
660721 769286 504
966745 889053 507
20232 959830 525
303521 799091 509
459468 414716 418
565829 292268 470
665801 474284 509
772481 987933 525
5349 703739 509
437770 876860 525
425263 889638 525
97002 388906 443
321833 260585 407
357907 860256 525
554369 475359 470
612028 743360 509
800398 130836 509
266957 193674 443
340927 358557 441
793345 223180 509
19404 703704 509
589067 485310 470
500015 946631 525
955638 608369 525
841919 20716 525
790177 60845 509
55779 294249 443
757169 545672 509
210356 431285 449
886871 981259 507
473811 655114 509
323214 996514 525
62084 716504 509
878983 365345 525
8897 845016 525
357228 1952 443
616232 661723 509
295085 752331 509
531124 111906 470
634431 96417 509
114774 192938 383
819272 355037 509
69890 973298 525
830896 616375 509
572895 805906 509
621448 321928 470
666163 355149 509
42641 118989 354
714471 659737 504
480115 403465 449
432589 659057 509
825867 709968 468
831861 822789 419
289409 768951 509
649289 441876 509
31057 542112 470
531346 824782 509
106036 411716 449
610412 375692 470
907706 164162 525
38149 323564 443
494713 565266 470
105372 487254 449
982271 7881 525
366280 526035 470
401 84536 351
579680 444027 470
760430 218197 509
547008 227573 470
11215 890424 525
530851 301704 470
578210 12741 470
597276 130836 470
668312 167488 509
255148 897462 525
117806 973336 525
661859 73417 509
78242 511374 449
959377 947805 414
163647 857100 525
777416 237257 509
451988 125669 449
366228 801604 509
983781 650945 525
788720 495723 509
432801 417561 418
912815 286741 525
274017 133308 443
39399 726617 509
558173 906841 525
961316 924585 507
596396 427449 470
189448 535633 470
932959 546281 525
775661 473244 509
124377 288020 443
302314 405832 441
247414 233743 381
806601 554724 509
196447 768723 509
981071 170347 525
161523 814593 509
836092 432677 509
977517 163024 525
172864 635018 509
128128 843808 525
424453 299292 449
392342 94638 443
293722 684480 509
86781 659615 509
932555 428075 525
248422 130585 443
64381 599210 470
287129 466695 449
477392 710921 509
63368 864354 525
150450 537194 470
191667 2596 383
708826 476509 509
180872 700250 509
614259 326320 470
356813 90898 443
294100 96693 443
82786 314981 443
566922 379281 470
842532 304416 525
561479 57943 470
691320 630447 442
349395 952035 525
831693 918765 525
702464 599269 509
555466 696057 509
1505 683326 509
237876 641836 509
66953 199922 383
