1 10 20
100 200 125
201 210 89
900 1000 174
1 1 1
10 1 20
10 20 21
200 300 128
401 420 134
800 900 179
20 60 113
300 500 144
601 700 145
1000 1020 156
1 100 119
250 300 123
1000 2000 182
2001 2500 209
40 40 9
999999 999999 259
99 100 26
10000 100000 351
2 2 2
1 100000 351
20 20 8
111 111 70
42389 23483 324
50 60 113
99 99 26
2000 2022 144
15000 17000 271
13 13 10
55555 66666 335
20000 21000 256
22 22 16
3 5 8
20 140 122
547 602 137
100 40000 324
423929 423930 126
423929 423929 126
100 101 26
888888 888888 119
777 777 34
1111 1111 32
111 1111 179
300 333 144
9832 1000 262
27 27 112
330 330 113
450 500 142
45000 45100 283
620 640 132
90000 91000 315
999 1000 112
888 889 148
4100 4225 189
1 2 2
987 980 143
300 250 123
30 10 112
999 800 179
1111 1110 32
555 444 142
42000 41800 257
98000 98033 191
42399 43000 257
10 12 15
14 16 18
12 6 20
2018 2019 113
2022 2023 157
6 8 17
429539 429336 250
50000 60000 340
98881 98881 98
1 99999 351
1 999 179
7654 7654 84
8654 6011 262
4342 5808 236
8684 9116 247
559 600 119
715542 715542 243
228 301 128
404 404 28
403 404 28
429336 429336 126
10000 11111 268
88 88 18
999 888 174
999 111 179
1 3 8
4 4 3
7876 7876 27
99 1 119
3 1 8
100 1 119
110 111 114
404 405 28
1009 1010 112
585 5566 238
512 585 137
183 183 94
512 567 137
9250 1 262
512 22 144
120000 130000 344
100000 99999 227
6 6 9
6 5 9
512 511 62
512737 512737 214
1800 1800 56
100 55 119
90 99 119
