1 10 20
100 200 125
201 210 89
900 1000 174
1000 2000 182
2423 4343 238
5252 6666 262
433 2333 183
345 3000 217
455 1444 182
765 810 153
1111 2222 182
241 35235 311
5233 52666 340
4634 66 238
4452 4452 140
3235 353 217
25236 4634 282
3453 5252 238
97956 4745 351
46436 6463 324
35233 52332 324
5122 24523 282
46346 856 324
23231 54657 340
43 5235 238
5232 77686 351
1 22 21
1 2 2
1 1 1
999999 999999 259
17 17 13
5 85 116
85 5 116
999998 999999 259
456 789 171
852 963 179
12 23 21
4 99 119
67 1 113
55 1 113
1 85000 351
48 456 144
7777 8888 252
71 5 113
88 89 31
8956 8956 141
4757 45 238
500000 500001 152
12 9000 262
78 100 119
1 1000 179
1000 1 179
850 950 179
950 1000 143
7963 7463 252
99 105 88
67 1 113
69 420 144
420 69 144
84 1 116
9 3 20
7 91 116
100 200 125
16 18 21
14 96 116
999998 999990 259
41341 53523 340
23535 5235 282
3235 35235 311
46 34634 311
4463 35 238
523 533 124
25352 53 282
52352 377 324
51553 646 324
564 4373 238
2352 35233 311
85684 57474 351
82 55 116
14 9001 262
681 682 65
683 684 127
684 683 127
683 682 39
4256 8888 262
100000 20000 351
8888 9991 260
4862 2684 238
71 17 113
864 521 171
123 7456 262
6663 3336 262
495 785 171
4 34 112
789 5 171
15 10011 262
4861 3 238
3 101 119
62427 35252 340
468346 468246 276
62262 333 340
5233 523 238
52352 55 324
5666 352 238
7777 578 262
54747 335 340
52333 4445 324
5 6 9
67 88 116
2424 6463 262
463444 466591 369
3433 6666 262
1919 5555 238
3333 3555 181
55555 55555 154
666666 666666 155
